{
    "location": "SP 01 BNT",
    "labType": "LAB",
    "status": "OUTLET",
    "description": " Sampel diambil pada lokasi Outlet SP 01 BNT, dengan menggunakan Jerigen 1 liter, didinginkan dan tanpa pengawet Pada Koordinat 03\u00b044 49 4\u201d - 115\u00b038'36,1\u201d",
    "PH": "6,2",
    "TSS": "29"
}